<?xml version="1.0" encoding="iso-8859-1"?>
<!-- Generator: Adobe Illustrator 19.0.0, SVG Export Plug-In . SVG Version: 6.00 Build 0)  -->
<svg version="1.1" id="Capa_1" xmlns="http://www.w3.org/2000/svg" xmlns:xlink="http://www.w3.org/1999/xlink" x="0px" y="0px"
	 viewBox="0 0 512 512" style="enable-background:new 0 0 512 512;" xml:space="preserve">
<path style="fill:#4899D2;" d="M136.119,412.401H26.137c-11.167-0.06-20.258-8.994-20.523-20.161V20.644
	C5.614,9.284,14.789,0.072,26.137,0h316.182c11.397,0,20.644,9.248,20.644,20.644V162.86c-0.012,11.397-9.26,20.632-20.668,20.62
	c-11.384-0.012-20.608-9.236-20.62-20.62V41.288H46.781v329.824h89.337c11.397-0.012,20.656,9.223,20.668,20.62
	c0.012,11.397-9.223,20.656-20.62,20.668C136.143,412.401,136.131,412.401,136.119,412.401z"/>
<path style="fill:#293C7D;" d="M261.553,512H115.112V366.042l245.195-244.833l146.079,145.958L261.553,512z M156.763,470.712h87.647
	l203.665-203.544l-87.647-87.647L156.763,383.185L156.763,470.712z"/>
<g>
</g>
<g>
</g>
<g>
</g>
<g>
</g>
<g>
</g>
<g>
</g>
<g>
</g>
<g>
</g>
<g>
</g>
<g>
</g>
<g>
</g>
<g>
</g>
<g>
</g>
<g>
</g>
<g>
</g>
</svg>
